{
	"_id": "09asdf900912312",
	"name": "CSS",
	"description": "CSS For Beginners",
	"price": 2000,
	"isActive": false,
	"slots": "20",
	"enrollees": ["2021lkjsdfkj", "2021lkjasdfu"]
}
// Create two more courses
{
	"_id": "09aajkllsakldfj",
	"name": "HTML",
	"description": "HTML For Beginners",
	"price": 2000,
	"isActive": true,
	"slots": "20",
	"enrollees": ["2021lkjsdfkj", "2021lkjasdfu"]
}
{
	"_id": "09348124hkjlsddjk",
	"name": "JavaScript",
	"description": "JavaScript For Beginners",
	"price": 2000,
	"isActive": true,
	"slots": "20",
	"enrollees": ["2021lkjasdfu"]
}