{
	"_id": "2021lkjsdfkj",
	"firstName": "John",
	"lastName": "Smith",
	"email": "jsmith@mail.com",
	"password": "johns123",
	"isAdmin": false,
	"mobileNumber": "09191234567",
	"enrollments": ["09asdf900912312","09aajkllsakldfj"]
}
// Create a new non admin user enrolled in 3 courses
{
	"_id": "2021lkjasdfu",
	"firstName": "Jane",
	"lastName": "Doe",
	"email": "jdoe@mail.com",
	"password": "jane321",
	"isAdmin": false,
	"mobileNumber": "09151234567",
	"enrollments": ["09asdf900912312","09aajkllsakldfj","09348124hkjlsddjk"]
}